4,0.000102502,0.00011176,0.000111198,0.000103754,0.000112441,0.000107491,0.000129172,0.000110858,0.000163026,0.000114384,0.0001175,0.00011756,0.000110227,0.000113834,0.000115196,0.000115286,0.000105037,0.000105478,0.000105648,0.000123622,0.000115497,0.000104656,0.000118572,0.000118692,0.000104656,0.000118732,0.000107793,0.000122459,0.000104597,0.000116569,0.000102392,0.000107882,0.00010664,0.000105628,0.000111419,0.000100559,0.00010667,0.000113222,0.000117972,0.000113122,0.000105709,0.000110267,0.000116479,0.000126808,0.00012775,0.000124534,0.000113142,0.000121548,0.00011762,0.000102111,0.000119494,0.000104205,0.000122981,0.00011214,0.000111269,0.000107602,0.000107652,0.000139591,0.000107933,0.000123221,0.000148508
8,0.000129834,0.000160531,0.000145824,0.000130756,0.000159168,0.000138069,0.000152205,0.000132127,0.000158497,0.000136927,0.000145493,0.000136536,0.000145493,0.000151314,0.000144011,0.000148359,0.000146795,0.000135755,0.000148569,0.000147126,0.000152646,0.000135073,0.000160531,0.000144311,0.000131116,0.000172634,0.000144,0.000162825,0.000144642,0.000140393,0.000148919,0.000128231,0.000138159,0.000158137,0.000134983,0.000146705,0.000140814,0.00014924,0.000167995,0.000162555,0.000122991,0.000142678,0.000152856,0.000127099,0.000155973,0.000141015,0.000163146,0.000132158,0.000130074,0.000145733,0.000143379,0.000137859,0.000137708,0.000151003,0.000139902,0.000146455,0.000142517,0.000144291,0.000125145,0.000131416,0.000157064
16,0.000220283,0.000228068,0.000206938,0.000262372,0.000221766,0.000208601,0.000210044,0.000223549,0.00027749,0.000209583,0.000200827,0.000230933,0.000215995,0.000200796,0.000215885,0.000226785,0.000212889,0.000206006,0.000234991,0.000210986,0.000200115,0.000215514,0.00023485,0.000225944,0.000199674,0.000253756,0.000259186,0.000226275,0.000221054,0.000205595,0.000221445,0.000207579,0.000226946,0.000260268,0.000194194,0.000259056,0.000242415,0.000261921,0.000254438,0.000231143,0.000253396,0.000242304,0.000257032,0.000235822,0.000224211,0.000203992,0.000224161,0.000235662,0.000247965,0.000246562,0.000281067,0.000239739,0.000198683,0.000236984,0.000240862,0.000220063,0.000254016,0.000277701,0.000308809,0.000285005,0.000225773
32,0.000282159,0.000299962,0.000291226,0.000342813,0.000286237,0.000308619,0.00440295,0.00027702,0.000297538,0.00030921,0.000351069,0.000280306,0.000308198,0.000316394,0.000322214,0.000312777,0.000278793,0.000304421,0.00027703,0.000241824,0.000296807,0.000323837,0.000266279,0.000286748,0.000290064,0.000258415,0.000284093,0.000312767,0.000320771,0.000285055,0.000302708,0.000324488,0.000342172,0.000448581,0.000328326,0.00130518,0.000316614,0.000257443,0.000355887,0.000343003,0.00029281,0.000334117,0.00036799,0.000391344,0.000387436,0.000358692,0.000297378,0.000350347,0.000316293,0.000423153,0.000356399,0.000510949,0.000318187,0.000382477,0.00454873,0.000383479,0.00032511,0.000337954,0.000303429,0.000344356,0.000278503
64,0.000416741,0.000375614,0.000427172,0.000386665,0.000372649,0.000396584,0.000402826,0.000431048,0.000404629,0.000363142,0.000416471,0.000401212,0.000396915,0.000347481,0.000415309,0.000477215,0.000394389,0.000413155,0.000419337,0.000374763,0.000368651,0.000372418,0.000417764,0.000392917,0.000403066,0.000365776,0.00039469,0.000465072,0.000403918,0.0004429,0.000356318,0.000375595,0.000427572,0.000388108,0.000473338,0.000374412,0.00057022,0.000515557,0.000456687,0.000422422,0.000484939,0.000489669,0.000378219,0.000395321,0.000384932,0.000402726,0.000403267,0.00039466,0.000432161,0.000445746,0.000420709,0.000495269,0.000370444,0.000454432,0.000680306,0.000394069,0.000413506,0.000485551,0.000403677,0.000459952,0.00048518
128,0.000603933,0.000563467,0.000510447,0.000720832,0.000584677,0.000587713,0.000743144,0.000597551,0.000512511,0.000552897,0.000564018,0.000461926,0.00053828,0.000628629,0.000483006,0.000603081,0.000524523,0.00057626,0.000507652,0.000619141,0.000543449,0.000677591,0.000552156,0.000637336,0.000543289,0.000640171,0.000673153,0.00071465,0.000521498,0.000507342,0.000556995,0.000565922,0.00231397,0.0010601,0.000616135,0.000612749,0.000523843,0.000526969,0.000749436,0.000709461,0.000692679,0.000583414,0.000548509,0.000590878,0.000687619,0.000569919,0.000720061,0.000646743,0.000607539,0.000568285,0.000623078,0.000492033,0.000520747,0.000563948,0.000517831,0.00500154,0.000715973,0.000526277,0.000678913,0.000521398,0.000622167
256,0.000861536,0.00118748,0.000899206,0.00105981,0.00085303,0.00109036,0.000907703,0.000820229,0.00101574,0.000884519,0.00074623,0.000865353,0.00100811,0.000732073,0.000719469,0.00117545,0.00077837,0.000797906,0.000781476,0.000877425,0.00106331,0.000856556,0.000765857,0.000783931,0.00108611,0.00109242,0.000851637,0.000940835,0.000803026,0.000804809,0.000854052,0.000749586,0.00119098,0.00112528,0.00108797,0.000953679,0.000818525,0.000992331,0.00097546,0.000766498,0.000909606,0.000892704,0.0035818,0.000828604,0.000868599,0.000917201,0.000841077,0.00114225,0.000701065,0.000930846,0.00119096,0.000774683,0.00120151,0.000903544,0.00110092,0.000961153,0.000793097,0.00106043,0.000910879,0.00133124,0.000916339
512,0.00137919,0.00148165,0.00143437,0.0013629,0.00190328,0.00154834,0.00153385,0.00174673,0.00219938,0.00144867,0.00132793,0.00175022,0.00160526,0.00148562,0.00142224,0.0012289,0.00125901,0.00184825,0.0015768,0.00149272,0.00145043,0.00133912,0.00135929,0.00168212,0.00165294,0.00226979,0.00146997,0.0021928,0.00212623,0.00182953,0.00214929,0.00144014,0.00171721,0.00122013,0.00145514,0.00136221,0.00150081,0.00220434,0.00164017,0.001469,0.00213077,0.0013902,0.00202239,0.00188802,0.00189216,0.00225739,0.00219509,0.00170015,0.00183284,0.00151386,0.00145009,0.00134046,0.00153395,0.00251147,0.00214681,0.00203352,0.00158034,0.00387298,0.00157962,0.00146459,0.0013331
1024,0.00387954,0.00224269,0.00372133,0.00239575,0.00227644,0.00342877,0.00270039,0.00376831,0.00955603,0.00387647,0.00408709,0.00256075,0.00306086,0.00414025,0.0022771,0.0145052,0.00265062,0.00391339,0.00229508,0.0028604,0.00341203,0.00246058,0.00369418,0.0175049,0.00343396,0.00344741,0.00275724,0.00368365,0.00266718,0.00400894,0.0027489,0.00226044,0.00805153,0.0200603,0.00397978,0.00295684,0.00906646,0.00289101,0.00448907,0.00279554,0.00423751,0.00253029,0.00276347,0.00239717,0.00453811,0.0113789,0.00426313,0.0038562,0.00392295,0.00297525,0.00321282,0.00671274,0.00302992,0.00287827,0.00346879,0.00331037,0.00600815,0.00265017,0.0027844,0.00829251,0.00284973
2048,0.00834168,0.00572693,0.00730779,0.006991,0.00454849,0.00734977,0.00698488,0.00572276,0.00488221,0.00852603,0.00828243,0.00648636,0.00593732,0.00681263,0.00762057,0.00664183,0.00820971,0.00509417,0.00553843,0.0248169,0.00431913,0.00693597,0.00536303,0.00471803,0.00479658,0.00489428,0.008113,0.0252418,0.00828259,0.00634126,0.00488571,0.00498224,0.00509773,0.00520883,0.0186809,0.00676468,0.00468624,0.00766726,0.00579503,0.00556791,0.00502952,0.00898556,0.00548407,0.00547918,0.007822,0.00523977,0.00669274,0.00905908,0.0052065,0.00722728,0.00960021,0.0045769,0.00753017,0.00729144,0.00702682,0.00470886,0.0102412,0.00875645,0.00756298,0.00805759,0.0126415
4096,0.0252451,0.0157154,0.0162457,0.0161146,0.0145491,0.0104658,0.0334355,0.0138408,0.0103185,0.0147751,0.0149697,0.00968924,0.0133863,0.0146944,0.0148459,0.0140779,0.0151363,0.0091595,0.0150848,0.0344845,0.00905301,0.0101948,0.00923303,0.0136241,0.0346527,0.0112148,0.0333253,0.0116536,0.0148018,0.0111883,0.00907242,0.00879372,0.0198161,0.0174657,0.0161994,0.0114966,0.0232925,0.0369721,0.0433114,0.0214878,0.0136316,0.00833523,0.0118588,0.0166173,0.035851,0.0156368,0.0144407,0.0227307,0.00836457,0.0244279,0.0185744,0.0536696,0.0127466,0.0233865,0.0219781,0.0150133,0.0196579,0.00978614,0.0134241,0.0158593,0.0418746
8192,0.0285233,0.0303257,0.0362092,0.0295294,0.0229804,0.0229948,0.0248134,0.0306296,0.0530842,0.0240154,0.0202971,0.0310738,0.0251679,0.0445655,0.0290715,0.054002,0.0546352,0.0299544,0.0542972,0.0284434,0.0295187,0.0264961,0.0392897,0.042151,0.0211173,0.021112,0.0376239,0.0172995,0.0294355,0.036698,0.0211512,0.0266889,0.0241047,0.0562346,0.0557217,0.0472764,0.0407611,0.0467123,0.0310391,0.0590866,0.0761778,0.0371636,0.052316,0.0656952,0.0300965,0.034285,0.040144,0.025727,0.0267567,0.0223708,0.0287363,0.0326247,0.0475533,0.0557713,0.0309118,0.0344226,0.0247519,0.0282389,0.0339428,0.0234858,0.030691
16384,0.0599695,0.056868,0.0607293,0.0566528,0.0824189,0.0641646,0.069122,0.059092,0.0417545,0.0474585,0.0418824,0.0962789,0.0900533,0.0570146,0.0939344,0.0472569,0.0611797,0.0559302,0.0558049,0.0563081,0.10803,0.085065,0.0694246,0.0634936,0.0996151,0.0822277,0.0947994,0.0378586,0.0774769,0.101462,0.0650563,0.0746916,0.0985358,0.050546,0.0988759,0.108767,0.0657308,0.104648,0.0440345,0.118416,0.0527132,0.100607,0.0714167,0.0986891,0.0988743,0.0888793,0.0963457,0.0706104,0.1135,0.0819928,0.0629119,0.0771754,0.116114,0.0759549,0.0736593,0.0675356,0.0693709,0.0923961,0.0689856,0.0778724,0.102511
32768,0.124727,0.130363,0.131894,0.126953,0.10627,0.115828,0.125143,0.173655,0.134148,0.120376,0.172401,0.0939515,0.180927,0.1499,0.112325,0.174023,0.139464,0.155118,0.176402,0.164693,0.158664,0.184204,0.113657,0.132505,0.126548,0.175976,0.110422,0.247237,0.139311,0.164369,0.123466,0.112482,0.231006,0.225194,0.235099,0.213034,0.144543,0.157941,0.121363,0.143784,0.17469,0.196561,0.16832,0.216245,0.164585,0.117479,0.180789,0.130388,0.200741,0.150437,0.149225,0.11719,0.228438,0.178153,0.191829,0.160743,0.136016,0.13031,0.177975,0.145139,0.139107
65536,0.334442,0.273387,0.306939,0.262585,0.230331,0.248415,0.280401,0.390248,0.275013,0.346029,0.28494,0.321442,0.380854,0.357522,0.316309,0.374892,0.303033,0.36001,0.252954,0.256402,0.414383,0.319405,0.241967,0.336299,0.291705,0.246825,0.177958,0.304581,0.244416,0.259696,0.32605,0.30596,0.432216,0.232463,0.355829,0.373,0.462512,0.529909,0.427431,0.409646,0.262911,0.368275,0.312184,0.373873,0.301218,0.272517,0.400471,0.347162,0.441534,0.481752,0.370767,0.453594,0.245563,0.307479,0.265238,0.32067,0.39462,0.252742,0.323142,0.380443,0.32709
131072,0.725658,0.632258,0.637314,0.663579,0.551669,0.539261,0.624227,0.551466,0.481479,0.564852,0.655438,0.680972,0.53356,0.536781,0.553393,0.697258,0.638703,0.586274,0.674998,0.604205,0.60752,0.677709,0.653548,0.488727,0.609066,0.573601,0.706982,0.584182,0.605066,0.544108,0.501333,0.593394,0.820275,0.74646,0.766499,0.777854,0.659013,0.752634,0.805436,0.735692,0.620141,0.767449,0.522561,0.718666,0.625044,0.750517,0.663642,0.822006,0.699945,0.704809,0.750119,0.618102,0.706445,0.697707,0.682622,0.779456,0.774832,0.734216,0.783136,0.716096,0.759911
262144,1.12561,1.26729,1.29997,1.59359,1.34408,1.29652,1.27777,1.3249,1.26851,1.30688,1.37897,1.24804,1.2793,1.12883,1.38579,1.18765,1.28305,1.37275,1.22379,1.04779,1.25763,1.24112,1.24944,1.43277,1.35151,1.32806,1.14472,1.39676,1.37308,1.23012,1.86184,1.57329,1.68691,1.41974,1.22677,1.61159,1.87053,1.60184,1.67622,1.50825,1.15294,1.49466,1.2662,1.22738,1.40144,1.64238,1.47916,1.53109,1.29767,1.65032,1.63638,1.69281,1.76611,1.54608,1.75858,1.31554,1.36855,1.47899,1.70705,1.53769,1.34606
524288,2.59314,2.3072,2.65172,2.62101,2.24425,2.66042,2.74622,2.39449,2.29813,2.81579,2.62241,2.70132,2.29417,2.63248,2.79875,2.74697,2.74633,2.81677,2.80582,2.40216,2.40029,2.63145,2.45602,2.75171,2.52234,2.36689,2.69633,2.51293,2.63119,2.46094,2.65973,2.58732,2.67511,3.08293,3.08701,3.01572,3.5473,2.97834,2.77114,3.5252,3.34713,3.22573,3.53205,3.34407,2.59231,2.77514,2.5368,2.77722,3.59852,3.52374,2.78143,3.30753,3.22984,2.68353,2.76501,2.60779,2.67661,2.66351,3.10644,2.62751,2.95948
1048576,5.28127,5.20704,5.18432,5.34425,4.8912,5.07116,5.05255,5.33114,5.10406,4.55468,5.26,5.43471,5.04234,4.90049,4.16267,4.85661,5.45112,5.08816,4.93677,5.1474,5.30786,5.45911,5.28296,5.33112,5.06436,5.35357,5.28587,5.20525,5.10013,5.46593,4.56626,4.62768,5.38844,6.68579,7.08661,7.08807,7.20138,6.52562,5.53382,6.06842,5.39022,6.44686,5.00271,7.36967,6.81484,6.93725,7.14617,5.8041,5.43484,6.43979,5.5011,5.19852,4.82843,5.11103,5.54635,4.76263,4.97173,5.24154,6.4574,5.18862,6.94072
2097152,11.0898,13.4826,12.9952,10.1855,10.0945,13.1954,8.81088,11.6909,9.70882,12.8744,12.853,10.5493,10.979,12.5012,12.7045,10.2419,11.894,11.8476,12.9551,12.785,10.4849,10.6574,12.95,12.1354,12.7238,10.3176,12.5428,12.7605,13.0888,10.5346,12.7885,12.707,10.7559,12.5964,10.1481,10.7105,11.7378,12.9172,12.6843,10.0801,10.9033,9.31122,12.2662,11.9502,14.2913,14.0395,12.2895,12.4319,11.1552,8.44316,12.0918,9.00357,14.1177,9.28437,12.5927,9.89056,12.896,12.1407,10.1156,12.1384,12.8227
4194304,25.3505,26.7072,22.351,25.0166,24.7819,26.7021,25.2205,23.755,22.6871,25.4579,25.7574,25.5247,25.3421,21.9675,26.9515,22.7527,26.2017,24.9153,25.5656,25.4385,21.874,25.1226,21.5319,21.6045,25.5307,21.7279,24.3584,25.4766,21.9428,22.2922,26.4036,25.6019,26.6042,24.6986,26.0518,23.5456,21.6839,26.6798,25.1003,25.0631,15.6635,24.7228,26.121,25.8781,25.0448,24.029,24.0079,24.4166,23.4616,24.082,26.043,18.7875,26.9056,25.6454,24.2749,26.0422,24.5689,24.9799,24.9851,26.8169,25.1176
